{
    "success": true,
    "data": [
        {
            "id": "c3367c3b-27af-49f7-878e-0a835330c760",
            "imagePath": "images/produits.png",
            "p1": "Nous offrons une vaste sélection de produits biologiques, naturels, végétaliens, sans gluten, locaux et écoresponsables.",
            "p2": "Tous nos fruits et légumes sont certifiés biologiques par Ecocert Canada.",
            "btn": "magasiner"
        },
        {
            "id": "c3367c3b-27af-49f7-878e-0a835330c761",
            "imagePath": "images/cosmetiques.png",
            "p1": "Nos succursales rassemblent sous un même toit des sections épicerie, suppléments et cosmétiques.",
            "p2": "Par souci de l`environnement, nous nous sommes dotés d`une Charte de développement durable dans le cadre de la Certification ÉCORESPONSABLE du Conseil des industries durables (CID) en collaboration avec Ecocert Canada."
        },
        {
            "id": "c3367c3b-27af-49f7-878e-0a835330c762",
            "imagePath": "images/nouriture.png",
            "p1": "Nos bistros sont réputés pour leur menu riche en saveurs et de grande qualité.",
            "p2": "Notre gamme de prêts-à-manger Avril Naturellement propose des plats et produits gourmands, cuisinés par nos chefs à partir d`ingrédients sains.",
            "btn": "magasiner"
        },
        {
            "id": "c3367c3b-27af-49f7-878e-0a835330c763",
            "imagePath": "images/boissons.png",
            "p1": "Nos marques maison naturellementbio, Naturellement Gourmet et Rolland Naturellement regroupent plus de 200 produits exclusifs, sélectionnés pour leur qualité supérieure."
        }
    ],
    "message": ""
}