<svg width="24" height="21" viewBox="0 0 24 21" fill="none" xmlns="http://www.w3.org/2000/svg">
<path fill-rule="evenodd" clip-rule="evenodd" d="M11.0058 4.94518C9.87299 4.94495 8.74018 4.94484 7.60739 4.94484C7.52888 4.94283 7.45032 4.94597 7.37222 4.95425C7.27931 4.96488 7.19173 5.00319 7.12083 5.06419C7.04993 5.1252 6.99898 5.2061 6.97458 5.29641C6.91044 5.48717 6.93524 5.69076 7.10627 5.79512C7.26663 5.89268 7.4497 5.94664 7.63732 5.95166C8.85192 5.95298 10.0665 5.95413 11.2811 5.95511C11.1504 5.6358 11.0569 5.29737 11.0058 4.94518ZM19.2791 5.95911C20.1304 5.95928 20.9817 5.95936 21.8329 5.95936C21.9964 5.95643 22.1598 5.96817 22.3212 5.99443C22.4845 6.02523 22.5701 6.12018 22.4845 6.30324C22.4212 6.44093 22.3656 6.58406 22.3099 6.72739C22.2829 6.79687 22.2559 6.86641 22.228 6.93539C21.6248 8.46316 21.0185 9.98923 20.4091 11.5136C20.1961 12.0448 19.9122 12.227 19.3487 12.227C15.9566 12.2236 12.5644 12.2253 9.17233 12.2321C8.95768 12.2321 8.87046 12.1705 8.80375 11.9627C8.52794 11.1052 8.24528 10.2507 7.96244 9.39567C7.76561 8.80064 7.56869 8.20534 7.37393 7.6086C6.99253 6.44923 6.61798 5.28472 6.25026 4.11508C6.04331 3.46326 5.50029 3.00304 4.84609 3.00304C3.91961 2.99848 2.99313 3 2.0669 3.00152C1.60388 3.00228 1.14092 3.00304 0.678059 3.00304C0.610177 3.00015 0.542414 3.01105 0.478861 3.03509C0.415308 3.05912 0.357284 3.09579 0.308291 3.14288C0.259299 3.18997 0.220355 3.2465 0.19381 3.30906C0.167266 3.37162 0.153672 3.43892 0.153849 3.50688C0.150428 3.79259 0.365927 4.0073 0.678059 4.0073C2.00298 4.01243 3.32819 4.015 4.65368 4.015C5.03423 4.015 5.1702 4.09712 5.28393 4.44784C5.40967 4.83575 5.53495 5.22446 5.66032 5.61343C5.87942 6.2932 6.09877 6.97375 6.32124 7.65223C6.71518 8.86122 7.11425 10.0685 7.51846 11.2741C7.62204 11.5825 7.7246 11.8911 7.82715 12.1996C8.15469 13.1851 8.48209 14.1702 8.84224 15.1474C9.19884 16.1072 9.71621 16.6546 10.9801 16.6409C13.0311 16.6177 15.082 16.622 17.1329 16.6264C17.9468 16.6281 18.7606 16.6298 19.5744 16.6298C19.6222 16.6298 19.6699 16.6303 19.7176 16.6308C19.8554 16.6323 19.9931 16.6338 20.1303 16.623C20.2085 16.6156 20.2838 16.5896 20.3499 16.5471C20.416 16.5046 20.4709 16.4468 20.51 16.3787C20.5491 16.3106 20.5713 16.234 20.5748 16.1555C20.5782 16.077 20.5627 15.9988 20.5297 15.9275C20.4185 15.694 20.2227 15.617 19.9704 15.617C18.4878 15.6199 17.0052 15.6198 15.5226 15.6197C13.9412 15.6196 12.3597 15.6195 10.7783 15.623C10.4474 15.6239 10.1583 15.5409 10.0241 15.2449C9.82104 14.7898 9.6355 14.3246 9.44995 13.8594C9.37602 13.6741 9.3021 13.4887 9.22706 13.304L9.29547 13.2424H9.61273C12.8908 13.2469 16.1689 13.2452 19.447 13.2372C20.3432 13.2355 21.0197 12.7454 21.3472 11.9096C21.5413 11.4137 21.7383 10.9191 21.9354 10.4245C22.017 10.2196 22.0987 10.0146 22.1801 9.80959C22.3183 9.46015 22.4572 9.11153 22.596 8.76316C22.8833 8.04213 23.1701 7.32219 23.4492 6.59836C23.7049 5.9337 23.4466 5.3332 22.7847 5.09453C22.4962 4.99664 22.1932 4.94805 21.8885 4.95082C21.1108 4.95017 20.3331 4.94957 19.5555 4.94903C19.5041 5.30131 19.4102 5.63979 19.2791 5.95911Z" fill="white"/>
<path d="M18.5958 20.9989C18.3296 21.0079 18.0643 20.9627 17.8161 20.8661C17.5679 20.7695 17.3418 20.6234 17.1517 20.4368C16.9616 20.2502 16.8114 20.0268 16.7101 19.7804C16.6089 19.5339 16.5587 19.2695 16.5627 19.003C16.5667 18.7366 16.6248 18.4738 16.7334 18.2305C16.842 17.9872 16.9989 17.7685 17.1945 17.5876C17.3901 17.4068 17.6204 17.2676 17.8715 17.1785C18.1225 17.0893 18.389 17.0521 18.6548 17.0691C19.7161 17.076 20.5858 17.9725 20.5815 19.0563C20.5798 19.3146 20.527 19.57 20.4261 19.8078C20.3252 20.0456 20.1782 20.261 19.9935 20.4417C19.8089 20.6223 19.5903 20.7646 19.3504 20.8602C19.1105 20.9558 18.8541 21.003 18.5958 20.9989ZM17.6723 19.0315C17.6738 19.156 17.6998 19.2791 17.7489 19.3936C17.7979 19.5081 17.8691 19.6119 17.9582 19.6989C18.0473 19.7859 18.1527 19.8545 18.2684 19.9008C18.384 19.947 18.5076 19.9701 18.6322 19.9686C18.7567 19.967 18.8797 19.941 18.9942 19.8919C19.1087 19.8429 19.2124 19.7717 19.2994 19.6825C19.3864 19.5934 19.455 19.488 19.5012 19.3723C19.5475 19.2566 19.5705 19.1329 19.569 19.0084C19.5659 18.7568 19.4631 18.5167 19.2831 18.3409C19.1031 18.1652 18.8606 18.0682 18.6091 18.0713C18.3576 18.0743 18.1176 18.1772 17.9419 18.3573C17.7662 18.5373 17.6692 18.7799 17.6723 19.0315Z" fill="white"/>
<path d="M9.8837 20.9961C9.62534 20.9975 9.36924 20.9479 9.13004 20.8502C8.89083 20.7525 8.67321 20.6087 8.48961 20.4268C8.306 20.245 8.16001 20.0288 8.05997 19.7905C7.95994 19.5522 7.90781 19.2965 7.90658 19.0381C7.89632 17.9568 8.7968 17.0706 9.90337 17.0706C10.4234 17.0732 10.9211 17.2824 11.287 17.6521C11.6529 18.0218 11.857 18.5217 11.8544 19.0419C11.8518 19.5621 11.6427 20.06 11.2731 20.426C10.9035 20.792 10.4038 20.9962 9.8837 20.9936V20.9961ZM10.8192 19.0466C10.8229 18.922 10.8016 18.7979 10.7566 18.6816C10.7116 18.5653 10.6437 18.4592 10.5571 18.3696C10.4705 18.2799 10.3669 18.2085 10.2522 18.1595C10.1376 18.1105 10.0143 18.0849 9.88969 18.0843C9.7647 18.0832 9.64071 18.1067 9.5248 18.1535C9.4089 18.2003 9.30334 18.2695 9.21417 18.3571C9.12499 18.4447 9.05394 18.549 9.00507 18.6641C8.9562 18.7792 8.93047 18.9028 8.92935 19.0278C8.92822 19.1528 8.95173 19.2769 8.99853 19.3928C9.04532 19.5087 9.11449 19.6143 9.20207 19.7035C9.28966 19.7927 9.39395 19.8638 9.509 19.9127C9.62405 19.9616 9.74759 19.9873 9.87258 19.9884C9.9971 19.9907 10.1208 19.968 10.2364 19.9215C10.3519 19.8751 10.457 19.8059 10.5453 19.718C10.6336 19.6302 10.7033 19.5255 10.7504 19.4102C10.7975 19.2948 10.8209 19.1712 10.8192 19.0466Z" fill="white"/>
<path d="M17.2007 6.86004V7.54004H13.3607V6.86004H14.8957V1.97504C14.8957 1.82837 14.9007 1.68004 14.9107 1.53004L13.6357 2.62504C13.5924 2.66171 13.549 2.68504 13.5057 2.69504C13.4624 2.70171 13.4224 2.70171 13.3857 2.69504C13.349 2.68837 13.314 2.67504 13.2807 2.65504C13.2507 2.63504 13.2274 2.61337 13.2107 2.59004L12.9307 2.20504L15.0657 0.360039H15.7907V6.86004H17.2007Z" fill="#BBD422"/>
</svg>
